<?xml version="1.0" encoding="UTF-8"?>
<session version="1.0">
<refactoring comment="Delete resource &apos;HeaderFooter&apos;" deleteContents="true" description="Delete resource &apos;HeaderFooter&apos;" element1="/HeaderFooter" flags="7" id="org.eclipse.ltk.core.refactoring.delete.resources" resources="1" stamp="1411335621060"/>
</session>